{
  "development": {
    "username": "root",
    "password": "123456",
    "database": "kuhaku",
    "host": "127.0.0.1",
    "dialect": "mysql"
  },
  "test": {
    "username": "root",
    "password": "123456",
    "database": "kuhaku",
    "host": "127.0.0.1",
    "dialect": "mysql"
  },
  "production": {
    "username": "root",
    "password": "123456",
    "database": "kuhaku",
    "host": "127.0.0.1",
    "dialect": "mysql"
  }
}
